<svg width="135" height="135" viewBox="0 0 135 135" fill="none" xmlns="http://www.w3.org/2000/svg">
<path fill-rule="evenodd" clip-rule="evenodd" d="M130 67.5C130 102.018 102.018 130 67.5 130C32.9822 130 5 102.018 5 67.5C5 32.9822 32.9822 5 67.5 5C102.018 5 130 32.9822 130 67.5ZM135 67.5C135 104.779 104.779 135 67.5 135C30.2208 135 0 104.779 0 67.5C0 30.2208 30.2208 0 67.5 0C104.779 0 135 30.2208 135 67.5ZM55.812 43.3325C54.486 43.7172 53.7229 45.104 54.1076 46.43L58.2139 60.5847H84.3076L89 65.2771V90.7756L79.1909 100.585H55.6924L46 90.8923V65.2477L50.6629 60.5847H53.0077L49.3055 47.8231C48.1515 43.845 50.4408 39.6846 54.419 38.5305L67.5714 34.7149C71.5495 33.5609 75.7099 35.8502 76.864 39.8283L78.5663 45.6964L73.7643 47.0895L72.062 41.2214C71.6773 39.8954 70.2905 39.1323 68.9644 39.517L55.812 43.3325ZM67.5115 70.0066L52.3496 80.501L67.5115 90.4158L82.6735 80.501L67.5115 70.0066ZM56.9088 80.4387L67.5115 73.1002L78.1143 80.4387L67.5115 87.3736L56.9088 80.4387ZM67.5118 83.8402C69.3565 83.8402 70.8519 82.3448 70.8519 80.5001C70.8519 78.6554 69.3565 77.16 67.5118 77.16C65.6671 77.16 64.1716 78.6554 64.1716 80.5001C64.1716 82.3448 65.6671 83.8402 67.5118 83.8402Z" fill="url(#paint0_linear)"/>
<defs>
<linearGradient id="paint0_linear" x1="67.5" y1="0" x2="67.5" y2="135" gradientUnits="userSpaceOnUse">
<stop stop-color="#FFECD2"/>
<stop offset="1" stop-color="#D5B99D"/>
</linearGradient>
</defs>
</svg>
